{"objects":
  [
    {
      "id":"001",
      "category":"Продаж/Квартири",
      "name":"Двокімнатна на Січових Стрільців",
      "rooms":"2",
      "allarea":"39.1",
      "kitcharea":"4.8",
      "floor":"5",
      "floors":"7",
      "price":"₴ 80,000.00",
      "detailed":"До вашої уваги представлена ​​квартира на продаж за адресою: вул. Січових Стрільців 103, яка знаходиться на 5 поверсі та складається з 2 кімнат. Квартира зі старим ремонтом. Дуже світла та простора, багато повітря, гарна шумоізоляція. Оптимістичний вид з вікна. У пішій доступності супермаркети, торгові центри, ресторани, велика кількість магазинів, школи, дитячі садки, поліклініка, стоматологічний кабінет. Тихий та затишний двір, дружелюбні сусіди, зона для вигулу тварин, зони для відпочинку та паркування. Зручна транспортна розв’язка – 10 хвилин до центру міста, метро, ​​транспорт. Позитивний продавець із почуттям гумору) АН КВАРТАЛИ надає: ➢ повну перевірку всіх документів на квартиру ➢ домовляється з власником про перегляд за погодженням у будь-який зручний для Вас час ➢професійну консультацію ➢ вибір варіантів на запит. Комісія агенції 4%.Телефонуйте, прекрасна квартира чекає на вас.",
      "img01":"https://crm-08498194.s3.eu-west-1.amazonaws.com/an-kvartaly/estate-images/watermark/491e1f0e66269dd279cb778efcc53c84.jpg",
      "img02":"https://crm-08498194.s3.eu-west-1.amazonaws.com/an-kvartaly/estate-images/watermark/69d284c8f5127f981b18625c099016c6.jpg",
      "img03":"https://crm-08498194.s3.eu-west-1.amazonaws.com/an-kvartaly/estate-images/watermark/3753831cf5142b342edb0cc233648398.jpg",
      "img04":"https://crm-08498194.s3.eu-west-1.amazonaws.com/an-kvartaly/estate-images/watermark/de1467cbae08c39c3d72922cf86a0bb6.jpg",
      "img05":"https://crm-08498194.s3.eu-west-1.amazonaws.com/an-kvartaly/estate-images/watermark/bb1b9f1175f3589e3f80ff22e1fec138.jpg",
      "img06":"https://crm-08498194.s3.eu-west-1.amazonaws.com/an-kvartaly/estate-images/watermark/d17df829930592dda05a48fb5351c936.jpg",
      "img07":"https://crm-08498194.s3.eu-west-1.amazonaws.com/an-kvartaly/estate-images/watermark/82ee4802fdeeb3ecd02ea351a9ec8219.jpg",
      "img08":"https://crm-08498194.s3.eu-west-1.amazonaws.com/an-kvartaly/estate-images/watermark/6269cc10780bd52d15fb64afea41a502.jpg",
      "img09":"https://crm-08498194.s3.eu-west-1.amazonaws.com/an-kvartaly/estate-images/watermark/fe4386098cf74e0513e1f138ce2ac988.jpg",
      "img10":"https://crm-08498194.s3.eu-west-1.amazonaws.com/an-kvartaly/estate-images/watermark/fd69bc5c9eb262edca364fa7f956b317.jpg"

    },
    {
      "id":"002",
      "category":"Продаж/Квартири",
      "name":"Однокімнатна квартира на Пімоненко",
      "rooms":"1",
      "allarea":"38",
      "kitcharea":"16",
      "floor":"11",
      "floors":"22",
      "price":"₴ 130,000.00",
      "detailed":"До вашої уваги представлена ​​квартира на продаж за адресою: вул.Миколи Пимоненка 19, в ЖК Greenville Park, яка знаходиться на 11 поверсі та складається з 1 кімнат. Квартира після будівельників, без оздоблювальних робіт. Дуже світла та простора, хороша шумоізоляція. У пішій доступності супермаркети, торгові центри, ресторани, велика кількість магазинів, школи, дитячі садки, поліклініка, стоматологічний кабінет. Тихий та затишний двір, дружелюбні сусіди, зона для вигулу тварин, зони для відпочинку та паркування. Зручна транспортна розв’язка – 20 хвилин до центру міста, метро, ​​транспорт. АН КВАРТАЛИ надає: ➢ повну перевірку всіх документів на квартиру ➢ домовляється з власником про перегляд за погодженням у будь-який зручний для Вас час ➢професійну консультацію ➢ вибір варіантів на запит. Телефонуйте, прекрасна квартира чекає на вас.",
      "img01":"http://t0.kvartaly.com.ua/wp-content/uploads/2021/12/9d6eeef6f5cbb091ef804e746c073cb1.jpg"
    },
    {
      "id":"003",
      "category":"Продаж/Комерційна нерухомість",
      "name":"Приміщення під комерцію",
      "rooms":"",
      "allarea":"352",
      "kitcharea":"",
      "floor":"2",
      "floors":"",
      "price":"₴ 350,000.00",
      "detailed":"Приміщення розташоване у щільній житловій забудові, за адресою м. Київ, вул. Данила Щербаківського, 47. Локація знаходиться в глибині ринку “Нивки”, що забезпечує жвавий пішохідний трафік. В приміщенні 2 простоих торгових зала, 3 підсобних приміщення, санузол. Електроенергія – 40 кВт. Є окремий підїзд для погрузки-вигрузки. Поруч розташовані такі національні оператори, як VODAFONE, DISKONI, EVA, FAMILY, Сільпо, АТБ, Нова Пошта, ROZETKA, ломбард “Скарбниця”, ТЦ “Мегамаркет “Нивки”, піцерія “BELISSIMO”, ЖК Файна Таун, спортивні зали та безліч торгівельних рядів різної направленості.",
      "img01":"http://t0.kvartaly.com.ua/wp-content/uploads/2021/12/7988cd9d0dc1894b1269b003c30e3a89.jpg"
    },
    {
      "id":"004",
      "category":"Продаж/Квартири",
      "name":"Двокімнатна на Sdfytyrj",
      "rooms":"2",
      "allarea":"39.1",
      "kitcharea":"4.8",
      "floor":"5",
      "floors":"7",
      "price":"₴ 80,000.00",
      "detailed":"До вашої уваги представлена ​​квартира на продаж за адресою: вул. Січових Стрільців 103, яка знаходиться на 5 поверсі та складається з 2 кімнат. Квартира зі старим ремонтом. Дуже світла та простора, багато повітря, гарна шумоізоляція. Оптимістичний вид з вікна. У пішій доступності супермаркети, торгові центри, ресторани, велика кількість магазинів, школи, дитячі садки, поліклініка, стоматологічний кабінет. Тихий та затишний двір, дружелюбні сусіди, зона для вигулу тварин, зони для відпочинку та паркування. Зручна транспортна розв’язка – 10 хвилин до центру міста, метро, ​​транспорт. Позитивний продавець із почуттям гумору) АН КВАРТАЛИ надає: ➢ повну перевірку всіх документів на квартиру ➢ домовляється з власником про перегляд за погодженням у будь-який зручний для Вас час ➢професійну консультацію ➢ вибір варіантів на запит. Комісія агенції 4%.Телефонуйте, прекрасна квартира чекає на вас.",
      "img01":"http://t0.kvartaly.com.ua/wp-content/uploads/2021/12/4_3.jpg"
    },
    {
      "id":"005",
      "category":"Продаж/Квартири",
      "name":"Однокімнатна квартира на Петренко",
      "rooms":"1",
      "allarea":"38",
      "kitcharea":"16",
      "floor":"11",
      "floors":"22",
      "price":"₴ 130,000.00",
      "detailed":"До вашої уваги представлена ​​квартира на продаж за адресою: вул.Миколи Пимоненка 19, в ЖК Greenville Park, яка знаходиться на 11 поверсі та складається з 1 кімнат. Квартира після будівельників, без оздоблювальних робіт. Дуже світла та простора, хороша шумоізоляція. У пішій доступності супермаркети, торгові центри, ресторани, велика кількість магазинів, школи, дитячі садки, поліклініка, стоматологічний кабінет. Тихий та затишний двір, дружелюбні сусіди, зона для вигулу тварин, зони для відпочинку та паркування. Зручна транспортна розв’язка – 20 хвилин до центру міста, метро, ​​транспорт. АН КВАРТАЛИ надає: ➢ повну перевірку всіх документів на квартиру ➢ домовляється з власником про перегляд за погодженням у будь-який зручний для Вас час ➢професійну консультацію ➢ вибір варіантів на запит. Телефонуйте, прекрасна квартира чекає на вас.",
      "img01":"http://t0.kvartaly.com.ua/wp-content/uploads/2021/12/9d6eeef6f5cbb091ef804e746c073cb1.jpg"
    },
    {
      "id":"006",
      "category":"Продаж/Комерційна нерухомість",
      "name":"Приміщення під комерцію на Сидоренко",
      "rooms":"",
      "allarea":"352",
      "kitcharea":"",
      "floor":"2",
      "floors":"",
      "price":"₴ 350,000.00",
      "detailed":"Приміщення розташоване у щільній житловій забудові, за адресою м. Київ, вул. Данила Щербаківського, 47. Локація знаходиться в глибині ринку “Нивки”, що забезпечує жвавий пішохідний трафік. В приміщенні 2 простоих торгових зала, 3 підсобних приміщення, санузол. Електроенергія – 40 кВт. Є окремий підїзд для погрузки-вигрузки. Поруч розташовані такі національні оператори, як VODAFONE, DISKONI, EVA, FAMILY, Сільпо, АТБ, Нова Пошта, ROZETKA, ломбард “Скарбниця”, ТЦ “Мегамаркет “Нивки”, піцерія “BELISSIMO”, ЖК Файна Таун, спортивні зали та безліч торгівельних рядів різної направленості.",
      "img01":"http://t0.kvartaly.com.ua/wp-content/uploads/2021/12/7988cd9d0dc1894b1269b003c30e3a89.jpg"
    },
    {
      "id":"007",
      "category":"Продаж/Квартири",
      "name":"Двокімнатна на Страхненко",
      "rooms":"2",
      "allarea":"39.1",
      "kitcharea":"4.8",
      "floor":"5",
      "floors":"7",
      "price":"₴ 80,000.00",
      "detailed":"До вашої уваги представлена ​​квартира на продаж за адресою: вул. Січових Стрільців 103, яка знаходиться на 5 поверсі та складається з 2 кімнат. Квартира зі старим ремонтом. Дуже світла та простора, багато повітря, гарна шумоізоляція. Оптимістичний вид з вікна. У пішій доступності супермаркети, торгові центри, ресторани, велика кількість магазинів, школи, дитячі садки, поліклініка, стоматологічний кабінет. Тихий та затишний двір, дружелюбні сусіди, зона для вигулу тварин, зони для відпочинку та паркування. Зручна транспортна розв’язка – 10 хвилин до центру міста, метро, ​​транспорт. Позитивний продавець із почуттям гумору) АН КВАРТАЛИ надає: ➢ повну перевірку всіх документів на квартиру ➢ домовляється з власником про перегляд за погодженням у будь-який зручний для Вас час ➢професійну консультацію ➢ вибір варіантів на запит. Комісія агенції 4%.Телефонуйте, прекрасна квартира чекає на вас.",
      "img01":"http://t0.kvartaly.com.ua/wp-content/uploads/2021/12/4_3.jpg"
    },
    {
      "id":"008",
      "category":"Продаж/Квартири",
      "name":"Пятикімнатна квартира на Пімоненко",
      "rooms":"1",
      "allarea":"38",
      "kitcharea":"16",
      "floor":"11",
      "floors":"22",
      "price":"₴ 130,000.00",
      "detailed":"До вашої уваги представлена ​​квартира на продаж за адресою: вул.Миколи Пимоненка 19, в ЖК Greenville Park, яка знаходиться на 11 поверсі та складається з 1 кімнат. Квартира після будівельників, без оздоблювальних робіт. Дуже світла та простора, хороша шумоізоляція. У пішій доступності супермаркети, торгові центри, ресторани, велика кількість магазинів, школи, дитячі садки, поліклініка, стоматологічний кабінет. Тихий та затишний двір, дружелюбні сусіди, зона для вигулу тварин, зони для відпочинку та паркування. Зручна транспортна розв’язка – 20 хвилин до центру міста, метро, ​​транспорт. АН КВАРТАЛИ надає: ➢ повну перевірку всіх документів на квартиру ➢ домовляється з власником про перегляд за погодженням у будь-який зручний для Вас час ➢професійну консультацію ➢ вибір варіантів на запит. Телефонуйте, прекрасна квартира чекає на вас.",
      "img01":"http://t0.kvartaly.com.ua/wp-content/uploads/2021/12/9d6eeef6f5cbb091ef804e746c073cb1.jpg"
    },
    {
      "id":"009",
      "category":"Продаж/Комерційна нерухомість",
      "name":"Приміщення на продаж",
      "rooms":"",
      "allarea":"352",
      "kitcharea":"",
      "floor":"2",
      "floors":"",
      "price":"₴ 350,000.00",
      "detailed":"Приміщення розташоване у щільній житловій забудові, за адресою м. Київ, вул. Данила Щербаківського, 47. Локація знаходиться в глибині ринку “Нивки”, що забезпечує жвавий пішохідний трафік. В приміщенні 2 простоих торгових зала, 3 підсобних приміщення, санузол. Електроенергія – 40 кВт. Є окремий підїзд для погрузки-вигрузки. Поруч розташовані такі національні оператори, як VODAFONE, DISKONI, EVA, FAMILY, Сільпо, АТБ, Нова Пошта, ROZETKA, ломбард “Скарбниця”, ТЦ “Мегамаркет “Нивки”, піцерія “BELISSIMO”, ЖК Файна Таун, спортивні зали та безліч торгівельних рядів різної направленості.",
      "img01":"http://t0.kvartaly.com.ua/wp-content/uploads/2021/12/7988cd9d0dc1894b1269b003c30e3a89.jpg"
    },
    {
      "id":"010",
      "category":"Продаж/Квартири",
      "name":"Двокімнатна на Січових Стрільців",
      "rooms":"2",
      "allarea":"39.1",
      "kitcharea":"4.8",
      "floor":"5",
      "floors":"7",
      "price":"₴ 80,000.00",
      "detailed":"До вашої уваги представлена ​​квартира на продаж за адресою: вул. Січових Стрільців 103, яка знаходиться на 5 поверсі та складається з 2 кімнат. Квартира зі старим ремонтом. Дуже світла та простора, багато повітря, гарна шумоізоляція. Оптимістичний вид з вікна. У пішій доступності супермаркети, торгові центри, ресторани, велика кількість магазинів, школи, дитячі садки, поліклініка, стоматологічний кабінет. Тихий та затишний двір, дружелюбні сусіди, зона для вигулу тварин, зони для відпочинку та паркування. Зручна транспортна розв’язка – 10 хвилин до центру міста, метро, ​​транспорт. Позитивний продавець із почуттям гумору) АН КВАРТАЛИ надає: ➢ повну перевірку всіх документів на квартиру ➢ домовляється з власником про перегляд за погодженням у будь-який зручний для Вас час ➢професійну консультацію ➢ вибір варіантів на запит. Комісія агенції 4%.Телефонуйте, прекрасна квартира чекає на вас.",
      "img01":"http://t0.kvartaly.com.ua/wp-content/uploads/2021/12/4_3.jpg"
    },
    {
      "id":"011",
      "category":"Продаж/Квартири",
      "name":"Однокімнатна квартира на Пімоненко",
      "rooms":"1",
      "allarea":"38",
      "kitcharea":"16",
      "floor":"11",
      "floors":"22",
      "price":"₴ 130,000.00",
      "detailed":"До вашої уваги представлена ​​квартира на продаж за адресою: вул.Миколи Пимоненка 19, в ЖК Greenville Park, яка знаходиться на 11 поверсі та складається з 1 кімнат. Квартира після будівельників, без оздоблювальних робіт. Дуже світла та простора, хороша шумоізоляція. У пішій доступності супермаркети, торгові центри, ресторани, велика кількість магазинів, школи, дитячі садки, поліклініка, стоматологічний кабінет. Тихий та затишний двір, дружелюбні сусіди, зона для вигулу тварин, зони для відпочинку та паркування. Зручна транспортна розв’язка – 20 хвилин до центру міста, метро, ​​транспорт. АН КВАРТАЛИ надає: ➢ повну перевірку всіх документів на квартиру ➢ домовляється з власником про перегляд за погодженням у будь-який зручний для Вас час ➢професійну консультацію ➢ вибір варіантів на запит. Телефонуйте, прекрасна квартира чекає на вас.",
      "img01":"http://t0.kvartaly.com.ua/wp-content/uploads/2021/12/9d6eeef6f5cbb091ef804e746c073cb1.jpg"
    },
    {
      "id":"012",
      "category":"Продаж/Комерційна нерухомість",
      "name":"Приміщення під комерцію",
      "rooms":"",
      "allarea":"352",
      "kitcharea":"",
      "floor":"2",
      "floors":"",
      "price":"₴ 350,000.00",
      "detailed":"Приміщення розташоване у щільній житловій забудові, за адресою м. Київ, вул. Данила Щербаківського, 47. Локація знаходиться в глибині ринку “Нивки”, що забезпечує жвавий пішохідний трафік. В приміщенні 2 простоих торгових зала, 3 підсобних приміщення, санузол. Електроенергія – 40 кВт. Є окремий підїзд для погрузки-вигрузки. Поруч розташовані такі національні оператори, як VODAFONE, DISKONI, EVA, FAMILY, Сільпо, АТБ, Нова Пошта, ROZETKA, ломбард “Скарбниця”, ТЦ “Мегамаркет “Нивки”, піцерія “BELISSIMO”, ЖК Файна Таун, спортивні зали та безліч торгівельних рядів різної направленості.",
      "img01":"http://t0.kvartaly.com.ua/wp-content/uploads/2021/12/7988cd9d0dc1894b1269b003c30e3a89.jpg"
    }
  ]
}
  
